{
    "KPlugin": {
        "Category": "Appearance",
        "Description": "Animates system style changes",
        "Description[ar]": "تغيرات نمط تحريكات النظام",
        "Description[az]": "Sistem tərzi dəyişikliklərini canlandırır",
        "Description[bg]": "Анимиране на промените на системния стил",
        "Description[ca@valencia]": "Anima els canvis d'estil del sistema",
        "Description[ca]": "Anima els canvis d'estil del sistema",
        "Description[de]": "Animiert Änderungem am Systemdesign",
        "Description[en_GB]": "Animates system style changes",
        "Description[es]": "Anima los cambios de estilo del sistema",
        "Description[eu]": "Sistemako estiloen aldaketak animatzen ditu",
        "Description[fi]": "Animoi järjestelmätyylin muutokset",
        "Description[fr]": "Anime les modifications de style du système",
        "Description[ia]": "Modificationes de stylo de systema animate",
        "Description[id]": "Menganimasikan perubahan gaya sistem",
        "Description[it]": "Anima le modifiche allo stile del sistema",
        "Description[ja]": "システムのスタイルの変更をアニメートします",
        "Description[ka]": "სისტემის სტილის ცვლილებების ანიმაცია",
        "Description[ko]": "시스템 스타일 변경 애니메이션",
        "Description[nl]": "Systeemstijl wijzigingen animeren",
        "Description[nn]": "Animer endringar i systemstil",
        "Description[pl]": "Animuje zmiany wyglądu systemu",
        "Description[pt]": "Anima as mudanças de estilo do sistema",
        "Description[pt_BR]": "Animar alterações de estilo do sistema",
        "Description[ro]": "Animează schimbările de stil al sistemului",
        "Description[ru]": "Анимация изменения оформления",
        "Description[sk]": "Animuje zmeny štýlu systému",
        "Description[sl]": "Animirajte spremembe sloga sistema",
        "Description[sv]": "Animerar systemets stiländringar",
        "Description[ta]": "தோற்றத்திட்டம் மாறும்போது அதை படிப்படியாக மாற்றும்",
        "Description[tr]": "Sistem biçemi değişikliklerini canlandırır",
        "Description[uk]": "Анімація змін у стилі системи",
        "Description[vi]": "Tạo hiệu ứng động cho các thay đổi kiểu cách hệ thống",
        "Description[x-test]": "xxAnimates system style changesxx",
        "Description[zh_CN]": "动画过渡系统风格更改",
        "Description[zh_TW]": "為系統風格變化使用動畫效果",
        "EnabledByDefault": true,
        "Id": "blendchanges",
        "License": "GPL",
        "Name": "Blend Changes",
        "Name[ar]": "تغييرات الخلط",
        "Name[az]": "Dəyişikliklərin birləşdirilməsi",
        "Name[bg]": "Смесване на промените",
        "Name[ca@valencia]": "Transició de canvis",
        "Name[ca]": "Transició de canvis",
        "Name[de]": "Änderungen umblenden",
        "Name[en_GB]": "Blend Changes",
        "Name[es]": "Mezclar cambios",
        "Name[eu]": "Konbinazio aldaketak",
        "Name[fi]": "Sekoita muutokset",
        "Name[fr]": "Modifications des mélanges",
        "Name[ia]": "Modificationes de Blend",
        "Name[id]": "Blend Changes",
        "Name[it]": "Miscela modifiche",
        "Name[ja]": "変更を溶け込ませる",
        "Name[ka]": "ცვლილებების შერევა",
        "Name[ko]": "변경 섞기",
        "Name[nl]": "Wijzigingen mengen",
        "Name[nn]": "Gradvise endringar",
        "Name[pl]": "Przenikanie zmian",
        "Name[pt]": "Misturar as Alterações",
        "Name[pt_BR]": "Misturar alterações",
        "Name[ro]": "Îmbină schimbările",
        "Name[ru]": "Плавные переходы",
        "Name[sk]": "Zmiešať zmeny",
        "Name[sl]": "Zmešaj spremembe",
        "Name[sv]": "Blanda ändringar",
        "Name[ta]": "படிப்படியாக மாற்று",
        "Name[tr]": "Değişiklikleri Harmanla",
        "Name[uk]": "Злиття змін",
        "Name[vi]": "Pha trộn các thay đổi",
        "Name[x-test]": "xxBlend Changesxx",
        "Name[zh_CN]": "平滑过渡更改",
        "Name[zh_TW]": "混合變化"
    },
    "org.kde.kwin.effect": {
        "internal": true
    }
}
