{
    "KPackageStructure": "KWin/Effect",
    "KPlugin": {
        "Authors": [
            {
                "Email": "rivolaks@hot.ee, mgraesslin@kde.org",
                "Name": "Rivo Laks, Martin Gräßlin",
                "Name[ar]": "ريفو لاكس، مارتن جراجلين",
                "Name[bg]": "Rivo Laks, Martin Gräßlin",
                "Name[ca@valencia]": "Rivo Laks, Martin Gräßlin",
                "Name[ca]": "Rivo Laks, Martin Gräßlin",
                "Name[es]": "Rivo Laks, Martin Gräßlin",
                "Name[eu]": "Rivo Laks, Martin Gräßlin",
                "Name[fr]": "Rivo Laks, Martin Gräßlin",
                "Name[it]": "Rivo Laks, Martin Gräßlin",
                "Name[ka]": "Rivo Laks, Martin Gräßlin",
                "Name[nl]": "Rivo Laks, Martin Gräßlin",
                "Name[pt]": "Rivo Laks, Martin Gräßlin",
                "Name[sl]": "Rivo Laks, Martin Gräßlin",
                "Name[ta]": "ரிவோ லாக்சு, மார்ட்டின் கிராஸ்லின்",
                "Name[tr]": "Rivo Laks, Martin Gräßlin",
                "Name[uk]": "Rivo Laks, Martin Gräßlin",
                "Name[vi]": "Rivo Laks, Martin Gräßlin",
                "Name[x-test]": "xxRivo Laks, Martin Gräßlinxx"
            }
        ],
        "Category": "Focus",
        "Description": "Darkens the parent window of the currently active dialog",
        "Description[ar]": "تعتم النافذة المولدة للحوار النشط حالياً",
        "Description[bg]": "Затъмняване на главния от активните прозорци",
        "Description[ca@valencia]": "Enfosquix la finestra principal del diàleg actual actiu",
        "Description[ca]": "Enfosqueix la finestra principal del diàleg actual actiu",
        "Description[es]": "Oscurece la ventana padre del diálogo activo",
        "Description[eu]": "Unean aktibo dagoen elkarrizketa-koadroaren guraso leihoa iluntzen du",
        "Description[fr]": "Assombrit la fenêtre parente de la boite de dialogue actuellement active.",
        "Description[it]": "Scurisce la finestra madre di quella attiva",
        "Description[nl]": "Maakt het venster dat bij de ouder van de actieve dialoog hoort donkerder",
        "Description[pt]": "Escurece a janela-mãe da janela activa de momento",
        "Description[sl]": "Potemni nadrejeno okno trenutno dejavnega okna",
        "Description[ta]": "தற்போது செயலில் உள்ள துணை சாளரத்தின் தாய் சாளரத்தை இருளாக்கும்",
        "Description[tr]": "Geçerli etkin iletişim kutusunun üst penceresini karartır",
        "Description[uk]": "Затемнення батьківських вікон активних діалогових вікон",
        "Description[vi]": "Làm tối cửa sổ cha của hộp thoại hiện đang hoạt động",
        "Description[x-test]": "xxDarkens the parent window of the currently active dialogxx",
        "EnabledByDefault": true,
        "Icon": "preferences-system-windows-effect-dialog-parent",
        "Id": "kwin4_effect_dialogparent",
        "License": "GPL",
        "Name": "Dialog Parent",
        "Name[ar]": "مولدة الحوار",
        "Name[bg]": "Основен прозорец",
        "Name[ca@valencia]": "Diàleg principal",
        "Name[ca]": "Diàleg principal",
        "Name[es]": "Ventana padre del diálogo",
        "Name[eu]": "Guraso elkarrizketa-koadroa",
        "Name[fr]": "Boîte de dialogue parente",
        "Name[it]": "Finestra madre",
        "Name[ka]": "ფანჯრის მშობელი",
        "Name[nl]": "Dialoogeigenaar",
        "Name[pt]": "Pai da Janela",
        "Name[sl]": "Nadrejeno pogovorno okno",
        "Name[ta]": "துணை சாளரத்தின் தாய்",
        "Name[tr]": "Üst İletişim Kutusu",
        "Name[uk]": "Батьківське вікно",
        "Name[vi]": "Cha hộp thoại",
        "Name[x-test]": "xxDialog Parentxx",
        "Version": "0.1.0"
    },
    "X-KDE-Ordering": "70",
    "X-Plasma-API": "javascript",
    "X-Plasma-MainScript": "code/main.js"
}
