{
    "KPackageStructure": "KWin/Effect",
    "KPlugin": {
        "Authors": [
            {
                "Email": "mgraesslin@kde.org",
                "Name": "Martin Gräßlin",
                "Name[ar]": "مارتن جراجلين",
                "Name[bg]": "Martin Gräßlin",
                "Name[ca@valencia]": "Martin Gräßlin",
                "Name[ca]": "Martin Gräßlin",
                "Name[es]": "Martin Gräßlin",
                "Name[eu]": "Martin Gräßlin",
                "Name[fr]": "Martin Gräßlin",
                "Name[it]": "Martin Gräßlin",
                "Name[ka]": "მარტინ გრესსლინი",
                "Name[nl]": "Martin Gräßlin",
                "Name[pt]": "Martin Gräßlin",
                "Name[sl]": "Martin Gräßlin",
                "Name[ta]": "மார்ட்டின் கிராஸ்லின்",
                "Name[tr]": "Martin Gräßlin",
                "Name[uk]": "Martin Gräßlin",
                "Name[vi]": "Martin Gräßlin",
                "Name[x-test]": "xxMartin Gräßlinxx"
            }
        ],
        "Category": "Appearance",
        "Description": "Animation for a window going to maximize/restore from maximize",
        "Description[ar]": "تحريك النوافذ عند تكبيرها/استعادة من التكبير",
        "Description[bg]": "Анимация за прозорец при максимизиране/възстановяване",
        "Description[ca@valencia]": "Animació per a una finestra que es maximitza/restaura des de maximització",
        "Description[ca]": "Animació per a una finestra que es maximitza/restaura des de maximització",
        "Description[es]": "Animación para la ventana que se maximiza o restaura desde el estado de maximizada",
        "Description[eu]": "Leihoa maximizatzera/maximizatutik leheneratzera doanerako animazioa",
        "Description[fr]": "Animation pour une fenêtre passant de maximiser / restaurer à partir de maximiser",
        "Description[it]": "Animazione per una finestra massimizzata o ripristinata dalla massimizzazione",
        "Description[nl]": "Animatie voor een venster dat gaat naar maximaliseren/herstellen vanuit maximaliseren",
        "Description[pt]": "Animação para uma janela ao maximizar-se/repor-se da maximização",
        "Description[sl]": "Animacija za okno, ki bo povečano/obnovljeno iz povečanja",
        "Description[ta]": "சாளரத்தை அதிகபட்ச பெரிதாக்கும்போதும் பழைய அளவை மீளமர்த்தும்போதும் பயன்படுத்த வேண்டிய அசைவூட்டம்",
        "Description[tr]": "Ekranı kaplayan veya geri dönen bir pencere için canlandırma",
        "Description[uk]": "Анімація для вікон під час максимізації/відновлення з максимізації",
        "Description[vi]": "Hiệu ứng động cho một cửa sổ chuẩn bị phóng to hoặc khôi phục từ trạng thái phóng to",
        "Description[x-test]": "xxAnimation for a window going to maximize/restore from maximizexx",
        "EnabledByDefault": true,
        "Icon": "preferences-system-windows-effect-maximize",
        "Id": "kwin4_effect_maximize",
        "License": "GPL",
        "Name": "Maximize",
        "Name[ar]": "كبّر",
        "Name[bg]": "Максимизиране",
        "Name[ca@valencia]": "Maximitza",
        "Name[ca]": "Maximitza",
        "Name[es]": "Maximizar",
        "Name[eu]": "Maximizatzea",
        "Name[fr]": "Maximiser",
        "Name[it]": "Massimizza",
        "Name[ka]": "გადიდება",
        "Name[nl]": "Maximaliseren",
        "Name[pt]": "Maximizar",
        "Name[sl]": "Razpni",
        "Name[ta]": "அதிகபட்ச பெரிதாக்குவது",
        "Name[tr]": "Ekranı Kapla",
        "Name[uk]": "Максимізація",
        "Name[vi]": "Phóng to",
        "Name[x-test]": "xxMaximizexx",
        "Version": "1",
        "Website": ""
    },
    "X-KDE-Ordering": "60",
    "X-KDE-ParentApp": "",
    "X-KWin-Video-Url": "https://files.kde.org/plasma/kwin/effect-videos/maximize.ogv",
    "X-Plasma-API": "javascript",
    "X-Plasma-MainScript": "code/maximize.js"
}
